{"frames": [

{
	"filename": "sDust_0.png",
	"frame": {"x":0,"y":0,"w":6,"h":6},
	"rotated": false,
	"trimmed": false,
	"spriteSourceSize": {"x":0,"y":0,"w":6,"h":6},
	"sourceSize": {"w":6,"h":6},
	"pivot": {"x":0.5,"y":0.5}
},
{
	"filename": "sDust_1.png",
	"frame": {"x":6,"y":0,"w":6,"h":6},
	"rotated": false,
	"trimmed": false,
	"spriteSourceSize": {"x":0,"y":0,"w":6,"h":6},
	"sourceSize": {"w":6,"h":6},
	"pivot": {"x":0.5,"y":0.5}
}],
"meta": {
	"app": "http://www.codeandweb.com/texturepacker",
	"version": "1.0",
	"image": "dustatlas.png",
	"format": "RGBA8888",
	"size": {"w":12,"h":6},
	"scale": "1",
	"smartupdate": "$TexturePacker:SmartUpdate:e1806d67169577dae26ed9206bad6010:dfc5957c8eb09c4471da7052a9021505:53ef48f15e51213e6429b3edd7e7a2e1$"
}
}
